layisense yokurhatjhela ukwenza imali inikelwa umrhatjho orhatjhela ukwenza imali namkha  oyingcenye yesijamiso esisebenzela ukwenza imali. IHlangano yezokuRhatjha ngoMmoya yeSewula Afrika (i-SABC) kuphela komrhatjho onelayisense yokurhatjhela umphakathi woke lapha eSewula Afrika.

Nanyana ngubani  ofuna ukurhatjhela ukwenza imali kufanele bona abe nelayisense yomdumo wokurhatjhela ukwenza imali.                                                                                               
 Nanyana ngubani ofuna ukurhatjhela ukwenza imali kufanele bona akhambisane nemibandela ebekwe siMemo sokwEnza isiBawo ( i-ITA ) sokuthola ilayisense yomdumo wokurhatjhela ukwenza imali, sona esimenyezelwe eGazedeni yomBuso. Imibandela le-ke ivamise ukuhlukana ngeengatjana ezisithandathu, ekungezilandelako:                                                                                                                
 Imibandela evamileko: ikambiso ekufanele ilandelwe                                                                                                             
 Ubujamo bebhizinisi : ubujamo bezomthetho bomfakisibawo                                                                                                        
 Amahlelo: isilinganiselo sesabelo salapha ekhethu salokho okurhatjhwako; ilimi; amahlelo arhatjhwako                                                                                                 
Iimfuneko nokudingekileko komsebenzi ophakanyiselwa ukwenziwa                                                                                                           
Iimali 
Iimfuneko zechwephetjhe.                                                           
Iforomu lesibawo neendawo eziphakanyiswako kuyingcenye yesimemo sokufaka isibawo esimenyezelwe eGazedeni yomBuso.   
